%YAML 1.1
%TAG !u! tag:unity3d.com,2011:
--- !u!114 &11400000
MonoBehaviour:
  m_ObjectHideFlags: 0
  m_CorrespondingSourceObject: {fileID: 0}
  m_PrefabInternal: {fileID: 0}
  m_GameObject: {fileID: 0}
  m_Enabled: 1
  m_EditorHideFlags: 0
  m_Script: {fileID: 11500000, guid: d4ea602b1291b5e42b602ff72247ca98, type: 3}
  m_Name: SteamVR_Input_ActionSet_buggy_In
  m_EditorClassIdentifier: 
  actionSet: {fileID: 0}
  listDirection: 0
  actions:
  - {fileID: 11400000, guid: 10bc7399146c2c44db292b2a3424f374, type: 2}
  - {fileID: 11400000, guid: 5d648195186fa1348b52cf164596d877, type: 2}
  - {fileID: 11400000, guid: d8d73264e796a5f4dbc19145a0d22422, type: 2}
  - {fileID: 11400000, guid: 07f4423201cf8d0498144fedb503f0ec, type: 2}
  Steering: {fileID: 11400000, guid: 10bc7399146c2c44db292b2a3424f374, type: 2}
  Throttle: {fileID: 11400000, guid: 5d648195186fa1348b52cf164596d877, type: 2}
  Brake: {fileID: 11400000, guid: d8d73264e796a5f4dbc19145a0d22422, type: 2}
  Reset: {fileID: 11400000, guid: 07f4423201cf8d0498144fedb503f0ec, type: 2}
